Single cell data science - Introduction to single cell data science
…
Dimensionality reduction

Next, we will work towards using dimensionality reduction to visualize the penguins in the principal components space.

For the four columns that contain mm or mass, we apply scale(), which centers and scales each variable.

penguins |> 
  mutate(across(contains(c("mm","mass")), scale))

# A tibble: 333 × 8
   species island    bill_length_mm[,1] bill_depth_mm[,1] flipper_length_mm[,1]
   <fct>   <fct>                  <dbl>             <dbl>                 <dbl>
 1 Adelie  Torgersen             -0.895             0.780                -1.42 
 2 Adelie  Torgersen             -0.822             0.119                -1.07 
 3 Adelie  Torgersen             -0.675             0.424                -0.426
 4 Adelie  Torgersen             -1.33              1.08                 -0.568
 5 Adelie  Torgersen             -0.858             1.74                 -0.782
 6 Adelie  Torgersen             -0.931             0.323                -1.42 
 7 Adelie  Torgersen             -0.876             1.24                 -0.426
 8 Adelie  Torgersen             -0.529             0.221                -1.35 
 9 Adelie  Torgersen             -0.986             2.05                 -0.711
10 Adelie  Torgersen             -1.72              2.00                 -0.212
# ℹ 323 more rows
# ℹ 3 more variables: body_mass_g <dbl[,1]>, sex <fct>, year <int>
…
Let’s create a new matrix called scaled with just the four columns scaled.

scaled <- penguins |> 
  select(contains(c("mm","mass"))) |> 
  mutate(across(everything(), scale))
scaled

# A tibble: 333 × 4
   bill_length_mm[,1] bill_depth_mm[,1] flipper_length_mm[,1] body_mass_g[,1]
                <dbl>             <dbl>                 <dbl>           <dbl>
 1             -0.895             0.780                -1.42           -0.568
 2             -0.822             0.119                -1.07           -0.506
 3             -0.675             0.424                -0.426          -1.19 
 4             -1.33              1.08                 -0.568          -0.940
 5             -0.858             1.74                 -0.782          -0.692
 6             -0.931             0.323                -1.42           -0.723
 7             -0.876             1.24                 -0.426           0.581
 8             -0.529             0.221                -1.35           -1.25 
 9             -0.986             2.05                 -0.711          -0.506
10             -1.72              2.00                 -0.212           0.240
# ℹ 323 more rows
…
